…
The `babynames` Object


```r
> class(babynames)
[1] "tbl_df"     "tbl"        "data.frame"
> dim(babynames)
[1] 1924665       5
```


```r
> babynames
# A tibble: 1,924,665 x 5
    year sex   name          n   prop
   <dbl> <chr> <chr>     <int>  <dbl>
 1  1880 F     Mary       7065 0.0724
 2  1880 F     Anna       2604 0.0267
 3  1880 F     Emma       2003 0.0205
 4  1880 F     Elizabeth  1939 0.0199
 5  1880 F     Minnie     1746 0.0179
 6  1880 F     Margaret   1578 0.0162
 7  1880 F     Ida        1472 0.0151
 8  1880 F     Alice      1414 0.0145
 9  1880 F     Bertha     1320 0.0135
10  1880 F     Sarah      1288 0.0132
# … with 1,924,655 more rows
```
…
## `filter()`


```r
> filter(babynames, year==1880, sex=="F")
# A tibble: 942 x 5
    year sex   name          n   prop
   <dbl> <chr> <chr>     <int>  <dbl>
 1  1880 F     Mary       7065 0.0724
 2  1880 F     Anna       2604 0.0267
 3  1880 F     Emma       2003 0.0205
 4  1880 F     Elizabeth  1939 0.0199
 5  1880 F     Minnie     1746 0.0179
 6  1880 F     Margaret   1578 0.0162
 7  1880 F     Ida        1472 0.0151
 8  1880 F     Alice      1414 0.0145
 9  1880 F     Bertha     1320 0.0135
10  1880 F     Sarah      1288 0.0132
# … with 932 more rows
…
```r
> filter(babynames, year==1880, sex=="F", n > 5000)
# A tibble: 1 x 5
   year sex   name      n   prop
  <dbl> <chr> <chr> <int>  <dbl>
1  1880 F     Mary   7065 0.0724
```

## `arrange()`


```r
> arrange(babynames, name, year, sex)
# A tibble: 1,924,665 x 5
    year sex   name      n       prop
   <dbl> <chr> <chr> <int>      <dbl>
 1  2007 M     Aaban     5 0.00000226
 2  2009 M     Aaban     6 0.00000283
 3  2010 M     Aaban     9 0.00000439
 4  2011 M     Aaban    11 0.00000542
 5  2012 M     Aaban    11 0.00000543
 6  2013 M     Aaban    14 0.00000694
 7  2014 M     Aaban    16 0.00000783
 8  2015 M     Aaban    15 0.00000736
 9  2016 M     Aaban     9 0.00000446
10  2017 M     Aaban    11 0.0000056 
# … with 1,924,655 more rows
```


```r
> arrange(babynames, desc(name), desc(year), sex)
# A tibble: 1,924,665 x 5
    year sex   name          n       prop
   <dbl> <chr> <chr>     <int>      <dbl>
 1  2010 M     Zzyzx         5 0.00000244
 2  2014 M     Zyyon         6 0.00000293
 3  2010 F     Zyyanna       6 0.00000306
 4  2015 M     Zyvon         7 0.00000343
 5  2009 M     Zyvion        5 0.00000236
 6  2017 F     Zyva          9 0.0000048 
 7  2016 F     Zyva          8 0.00000415
 8  2015 M     Zyus          5 0.00000245
 9  2010 M     Zytavious     6 0.00000292
10  2009 M     Zytavious     7 0.0000033 
# … with 1,924,655 more rows
```

## `rename()`


```r
> rename(babynames, number=n)
# A tibble: 1,924,665 x 5
    year sex   name      number   prop
   <dbl> <chr> <chr>      <int>  <dbl>
 1  1880 F     Mary        7065 0.0724
 2  1880 F     Anna        2604 0.0267
 3  1880 F     Emma        2003 0.0205
 4  1880 F     Elizabeth   1939 0.0199
 5  1880 F     Minnie      1746 0.0179
 6  1880 F     Margaret    1578 0.0162
 7  1880 F     Ida         1472 0.0151
 8  1880 F     Alice       1414 0.0145
 9  1880 F     Bertha      1320 0.0135
10  1880 F     Sarah       1288 0.0132
# … with 1,924,655 more rows
```

## `select()`


```r
> select(babynames, sex, name, n)
# A tibble: 1,924,665 x 3
   sex   name          n
   <chr> <chr>     <int>
 1 F     Mary       7065
 2 F     Anna       2604
 3 F     Emma       2003
 4 F     Elizabeth  1939
 5 F     Minnie     1746
 6 F     Margaret   1578
 7 F     Ida        1472
 8 F     Alice      1414
 9 F     Bertha     1320
10 F     Sarah      1288
# … with 1,924,655 more rows
> ## same as select(babynames, sex:n)
```

Renaming with `select()`:


```r
> select(babynames, sex, name, number=n)
# A tibble: 1,924,665 x 3
   sex   name      number
   <chr> <chr>      <int>
 1 F     Mary        7065
 2 F     Anna        2604
 3 F     Emma        2003
 4 F     Elizabeth   1939
 5 F     Minnie      1746
 6 F     Margaret    1578
 7 F     Ida         1472
 8 F     Alice       1414
 9 F     Bertha      1320
10 F     Sarah       1288
# … with 1,924,655 more rows
```

## `mutate()`


```r
> mutate(babynames, total_by_year=round(n/prop))
# A tibble: 1,924,665 x 6
    year sex   name          n   prop total_by_year
   <dbl> <chr> <chr>     <int>  <dbl>         <dbl>
 1  1880 F     Mary       7065 0.0724         97605
 2  1880 F     Anna       2604 0.0267         97605
 3  1880 F     Emma       2003 0.0205         97605
 4  1880 F     Elizabeth  1939 0.0199         97605
 5  1880 F     Minnie     1746 0.0179         97605
 6  1880 F     Margaret   1578 0.0162         97605
 7  1880 F     Ida        1472 0.0151         97605
 8  1880 F     Alice      1414 0.0145         97605
 9  1880 F     Bertha     1320 0.0135         97605
10  1880 F     Sarah      1288 0.0132         97605
# … with 1,924,655 more rows
> ## see also transmutate
```

## Babynames: Numver of Individuals by Year and Sex

Let's put a few things together now adding the function `distinct()`...


```r
> babynames %>% mutate(total_by_year=round(n/prop)) %>% 
+   select(sex, year, total_by_year) %>% distinct()
# A tibble: 36,099 x 3
   sex    year total_by_year
   <chr> <dbl>         <dbl>
 1 F      1880         97605
 2 F      1880         97604
 3 F      1880         97606
 4 F      1880         97603
 5 F      1880         97607
 6 F      1880         97602
 7 F      1880         97609
 8 F      1880         97599
 9 M      1880        118400
10 M      1880        118399
# … with 36,089 more rows
```
…
### `group_by()`


```r
> babynames %>% group_by(year, sex)
# A tibble: 1,924,665 x 5
# Groups:   year, sex [276]
    year sex   name          n   prop
   <dbl> <chr> <chr>     <int>  <dbl>
 1  1880 F     Mary       7065 0.0724
 2  1880 F     Anna       2604 0.0267
 3  1880 F     Emma       2003 0.0205
 4  1880 F     Elizabeth  1939 0.0199
 5  1880 F     Minnie     1746 0.0179
 6  1880 F     Margaret   1578 0.0162
 7  1880 F     Ida        1472 0.0151
 8  1880 F     Alice      1414 0.0145
 9  1880 F     Bertha     1320 0.0135
10  1880 F     Sarah      1288 0.0132
# … with 1,924,655 more rows
```

### No. Individuals by Year and Sex


```r
> babynames %>% group_by(year, sex) %>% 
+   summarize(total_by_year=sum(n))
# A tibble: 276 x 3
# Groups:   year [?]
    year sex   total_by_year
   <dbl> <chr>         <int>
 1  1880 F             90993
 2  1880 M            110491
 3  1881 F             91953
 4  1881 M            100743
 5  1882 F            107847
 6  1882 M            113686
 7  1883 F            112319
 8  1883 M            104627
 9  1884 F            129020
10  1884 M            114442
# … with 266 more rows
```
…
$marker.pos
[1] 2820    2
```

### Gene Expression Matrices


```r
> exp.g %>% cbind(rownames(exp.g), .) %>% as_tibble() %>% 
+   print()
Warning: `as_tibble.matrix()` requires a matrix with column names or a `.name_repair` argument. Using compatibility `.name_repair`.
This warning is displayed once per session.
# A tibble: 4,482 x 110
   V1    X100g.20_4_c.gl… X101g.21_1_d.gl… X102g.21_2_d.gl…
   <chr> <chr>            <chr>            <chr>           
 1 YJR1… 0.22             0.18             0.05            
 2 YPL2… -0.29            -0.2             -0.19           
 3 YDR5… 0.72             0.04             0.26            
 4 YDR2… 0.23             0.31             0.12            
 5 YHR0… 0.4              -0.04            0.36            
 6 YFR0… -0.36            0.35             -0.26           
 7 YPL1… 0.23             -0.21            -0.25           
 8 YDR0… -0.09            0.57             0.24            
 9 YLR3… -0.23            0.13             -0.17           
10 YCR0… -0.25            -0.98            -0.3            
# … with 4,472 more rows, and 106 more variables:
#   X103g.21_3_d.glucose <chr>, X104g.21_4_d.glucose <chr>,
#   X105g.21_5_c.glucose <chr>, X106g.22_2_d.glucose <chr>,
#   X107g.22_3_b.glucose <chr>, X109g.22_5_d.glucose <chr>,
#   X10g.2_5_d.glucose <chr>, X110g.23_3_d.glucose <chr>,
#   X111g.23_5_d.glucose <chr>, X112g.24_1_d.glucose <chr>,
#   X113g.25_1_d.glucose <chr>, X114g.25_3_d.glucose <chr>,
#   X115g.25_4_d.glucose <chr>, X116g.26_1_d.glucose <chr>,
#   X117g.26_2_d.glucose <chr>, X11g.2_6_d.glucose <chr>,
…
### Gene Position Matrix


```r
> exp.pos %>% cbind(rownames(exp.pos), .) %>% as_tibble() %>% 
+   print()
# A tibble: 4,482 x 4
   V1      Chromsome Start_coord End_coord
   <chr>   <chr>     <chr>       <chr>    
 1 YJR107W 10        627333      628319   
 2 YPL270W 16        30482       32803    
 3 YDR518W 4         1478600     1480153  
 4 YDR233C 4         930353      929466   
 5 YHR098C 8         301937      299148   
 6 YFR029W 6         210925      212961   
 7 YPL198W 16        173151      174701   
 8 YDR001C 4         452472      450217   
 9 YLR394W 12        907950      909398   
10 YCR079W 3         252842      254170   
# … with 4,472 more rows
```
…
### Gene Positions

Let's first pull out rownames of `exp.pos` and make them a column in the data frame.


```r
> gene_pos <- exp.pos %>% as_tibble() %>%
+   mutate(gene = rownames(exp.pos)) %>%
+   dplyr::select(gene, chr = Chromsome, start = Start_coord, 
+                 end = End_coord)
> print(gene_pos, n=7)
# A tibble: 4,482 x 4
  gene      chr   start     end
  <chr>   <int>   <int>   <int>
1 YJR107W    10  627333  628319
2 YPL270W    16   30482   32803
3 YDR518W     4 1478600 1480153
4 YDR233C     4  930353  929466
5 YHR098C     8  301937  299148
6 YFR029W     6  210925  212961
7 YPL198W    16  173151  174701
# … with 4,475 more rows
```
…
Get the mean and standard deviation expression per chromosome in each condition.


```r
> sk_tidy %>%
+   group_by(chr, condition) %>%
+   summarize(mean = mean(expression), sd=sd(expression))
# A tibble: 32 x 4
# Groups:   chr [?]
     chr condition      mean    sd
   <int> <chr>         <dbl> <dbl>
 1     1 ethanol    0.0260   0.480
 2     1 glucose   -0.178    1.05 
 3     2 ethanol    0.0132   0.479
 4     2 glucose   -0.103    0.750
 5     3 ethanol    0.000164 0.536
 6     3 glucose   -0.0461   0.800
 7     4 ethanol    0.00187  0.482
 8     4 glucose   -0.0484   0.586
 9     5 ethanol   -0.0297   0.479
10     5 glucose   -0.0862   0.716
# … with 22 more rows
```
…
To plot expression in glucose versus ethanol we first need to use `dcast()`.


```r
> sk_tidy %>% dcast(gene + segregant ~ condition, 
+                   value.var = "expression") %>%
+   as_tibble()
# A tibble: 488,102 x 4
   gene    segregant ethanol glucose
   <chr>   <chr>       <dbl>   <dbl>
 1 YAL002W 1_1_d        0.37   -0.01
 2 YAL002W 1_3_d        0.23    0.03
 3 YAL002W 1_4_d        0.08    0.07
 4 YAL002W 1_5_c       -0.12    0.13
 5 YAL002W 10_1_c       0.12   -0.1 
 6 YAL002W 10_2_d       0.1    -0.2 
 7 YAL002W 10_3_c       0.07   -0.15
 8 YAL002W 10_4_d       0.06   -0.04
 9 YAL002W 11_1_a       0.07   -0.07
10 YAL002W 11_2_d       0.3     0.1 
# … with 488,092 more rows
```
…
