…
- However, the arguments these functions take and the ouput of the functions are in line with the framework that we have covered

## Normal Data: "Davis" Data Set


```r
> library("car")
> data("Davis")
```


```r
> htwt <- tbl_df(Davis)
> htwt
# A tibble: 200 x 5
   sex   weight height repwt repht
   <fct>  <int>  <int> <int> <int>
 1 M         77    182    77   180
 2 F         58    161    51   159
 3 F         53    161    54   158
 4 M         68    177    70   175
 5 F         59    157    59   155
 6 M         76    170    76   165
 7 M         76    167    77   165
 8 M         69    186    73   180
 9 M         71    178    71   175
10 M         65    171    64   170
# … with 190 more rows
```
…
