…
<img src="stat_models_1_files/figure-html/unnamed-chunk-49-1.png" width="672" style="display: block; margin: auto;" />

## Tree Pollen Study



Suppose that we have a study where tree pollen measurements are averaged every week, and these data are recorded for 10 years.  These data are simulated:


```r
> pollen_study
# A tibble: 520 x 3
    week  year pollen
   <int> <int>  <dbl>
 1     1  2001  1842.
 2     2  2001  1966.
 3     3  2001  2381.
 4     4  2001  2141.
 5     5  2001  2210.
 6     6  2001  2585.
 7     7  2001  2392.
 8     8  2001  2105.
 9     9  2001  2278.
10    10  2001  2384.
# … with 510 more rows
```
…
